{
  "images" : [
    {
      "idiom" : "universal",
      "scale" : "1x",
      "filename" : "LeftArrowICon.png"
    },
    {
      "idiom" : "universal",
      "scale" : "2x",
      "filename" : "LeftArrowICon@2x.png"
    },
    {
      "idiom" : "universal",
      "scale" : "3x",
      "filename" : "LeftArrowICon@3x.png"
    }
  ],
  "info" : {
    "version" : 1,
    "author" : "xcode"
  }
}