{
  "images" : [
    {
      "idiom" : "universal"
    },
    {
      "idiom" : "universal",
      "filename" : "HealthRecord.png",
      "unassigned" : true,
      "scale" : "1x"
    },
    {
      "idiom" : "universal",
      "filename" : "HealthRecord@2x.png",
      "unassigned" : true,
      "scale" : "2x"
    }
  ],
  "info" : {
    "version" : 1,
    "author" : "xcode"
  }
}